[gd_scene load_steps=2 format=2]

[ext_resource path="res://ui/MultipleChoiceButton.gd" type="Script" id=1]

[node name="MultipleChoiceButton" type="Button"]
margin_right = 128.0
margin_bottom = 32.0
grow_horizontal = 2
grow_vertical = 2
toggle_mode = true
action_mode = 0
text = "Choice"
script = ExtResource( 1 )
__meta__ = {
"_edit_use_anchors_": false
}

[node name="Incorrect" type="Line2D" parent="."]
visible = false
position = Vector2( -208, -296 )
points = PoolVector2Array( 288, 296, 256, 328 )
default_color = Color( 1, 0, 0, 1 )

[node name="Correct" type="Line2D" parent="."]
visible = false
position = Vector2( -368, -272 )
points = PoolVector2Array( 368, 272, 368, 304, 496, 304, 496, 272, 368, 272 )
default_color = Color( 0, 1, 0, 1 )
